{
  "project_info": {
    "project_number": "945858935732",
    "firebase_url": "https://myway-6b38f.firebaseio.com",
    "project_id": "myway-6b38f",
    "storage_bucket": "myway-6b38f.appspot.com"
  },
  "client": [
    {
      "client_info": {
        "mobilesdk_app_id": "1:945858935732:android:467c133c03fae9b7",
        "android_client_info": {
          "package_name": "com.dima.myway"
        }
      },
      "oauth_client": [
        {
          "client_id": "945858935732-3khpjs7nsnfncltaupr4stdej7bej077.apps.googleusercontent.com",
          "client_type": 1,
          "android_info": {
            "package_name": "com.dima.myway",
            "certificate_hash": "7197bfc6b60eb3334936bf7278f1872a920b6b73"
          }
        },
        {
          "client_id": "945858935732-fb72g2u2b26bm6vafi2gisqaun2edujh.apps.googleusercontent.com",
          "client_type": 3
        }
      ],
      "api_key": [
        {
          "current_key": "AIzaSyCOhL5MHPDojbHER6Xv-P849zrZl8KTwpA"
        }
      ],
      "services": {
        "analytics_service": {
          "status": 1
        },
        "appinvite_service": {
          "status": 2,
          "other_platform_oauth_client": [
            {
              "client_id": "945858935732-fb72g2u2b26bm6vafi2gisqaun2edujh.apps.googleusercontent.com",
              "client_type": 3
            }
          ]
        },
        "ads_service": {
          "status": 2
        }
      }
    }
  ],
  "configuration_version": "1"
}